year,negative,neutral,positive
2008,0,0,0
2009,0,0,0
2010,0,0,0
2011,0,0,0
2012,0,0,0
2013,0,0,0
2014,0,0,0
2015,0,0,0
2016,0,1,0
2017,0,1,0
2018,0,1,0
2019,0,1,0
2020,0,4,0
2021,1,2,0
2022,0,0,0
