year,negative,neutral,positive
2008,0,0,0
2009,3,15,2
2010,100,234,84
2011,136,392,76
2012,185,669,68
2013,114,434,62
2014,91,396,60
2015,81,280,58
2016,81,292,34
2017,62,197,27
2018,39,134,24
2019,45,124,18
2020,43,169,18
2021,37,109,15
2022,14,41,4
