year,negative,neutral,positive
2008,0,0,0
2009,0,0,0
2010,1,9,0
2011,5,10,1
2012,17,52,18
2013,51,227,58
2014,177,519,130
2015,166,510,89
2016,119,344,80
2017,84,282,84
2018,60,146,44
2019,37,128,18
2020,61,227,65
2021,27,109,35
2022,15,400,13
