system,total_comments,2008,2009,2010,2011,2012,2013,2014,2015,2016,2017,2018,2019,2020,2021,2022
oracledb,97,0,0,0,0,0,1,66,1,1,10,2,1,7,7,1
mysql,12180,8,30,110,169,471,680,901,1198,772,1845,1353,894,1253,1164,1332
sqlite,4418,0,0,10,16,87,336,826,765,543,450,250,183,353,171,428
microsoftsql,0,0,0,0,0,0,0,0,0,0,0,0,0,0,0,0
mongodb,5067,0,20,418,604,922,610,547,419,407,286,197,187,230,161,59
elasticsearch,6053,0,0,11,144,150,346,695,741,819,462,399,514,783,686,303
microsoftaccess,0,0,0,0,0,0,0,0,0,0,0,0,0,0,0,0
redis,1259,0,4,31,88,91,113,206,278,101,95,69,72,54,41,16
postgresql,19442,4,4,9,77,183,518,1258,1314,1043,1656,2373,3102,2389,4507,1005
ibmdb,11,0,0,0,0,0,0,0,0,1,1,1,1,4,3,0
