system,date
oracledb,2016-12-15T21:39:20Z
oracledb,2018-08-15T15:49:33Z
oracledb,2018-08-15T17:10:05Z
oracledb,2020-02-20T12:14:31Z
oracledb,2020-02-20T21:40:20Z
oracledb,2020-05-11T15:37:01Z
oracledb,2020-05-11T15:52:22Z
oracledb,2020-05-11T16:28:08Z
oracledb,2020-05-11T16:34:17Z
oracledb,2021-08-19T12:55:02Z
oracledb,2021-08-19T22:37:29Z
oracledb,2021-08-22T13:16:06Z
oracledb,2021-08-23T11:36:20Z
oracledb,2021-08-23T11:59:25Z
oracledb,2017-12-13T15:53:54Z
oracledb,2017-12-13T16:05:48Z
oracledb,2017-12-13T16:18:39Z
oracledb,2017-12-13T16:19:34Z
oracledb,2017-12-13T16:23:01Z
oracledb,2017-12-13T16:28:13Z
oracledb,2017-12-13T16:32:35Z
oracledb,2017-12-13T16:36:03Z
oracledb,2019-08-29T07:24:15Z
oracledb,2021-09-29T14:09:27Z
oracledb,2013-08-22T18:04:47Z
oracledb,2014-03-25T15:49:27Z
oracledb,2014-03-25T15:50:44Z
oracledb,2014-03-25T15:52:15Z
oracledb,2014-03-25T15:55:53Z
oracledb,2014-03-25T15:57:11Z
oracledb,2014-03-25T16:02:18Z
oracledb,2014-03-25T16:05:21Z
oracledb,2014-03-25T16:07:12Z
oracledb,2014-03-25T16:09:27Z
oracledb,2014-03-25T16:11:51Z
oracledb,2014-03-25T16:13:53Z
oracledb,2014-03-25T17:45:21Z
oracledb,2014-03-25T17:56:59Z
oracledb,2014-03-25T17:58:16Z
oracledb,2014-03-25T17:58:39Z
oracledb,2014-03-25T18:02:57Z
oracledb,2014-03-25T18:04:37Z
oracledb,2014-03-25T18:16:04Z
oracledb,2014-05-07T16:55:43Z
oracledb,2014-05-07T16:58:16Z
oracledb,2014-05-07T19:14:09Z
oracledb,2014-05-07T19:15:38Z
oracledb,2014-05-07T19:17:45Z
oracledb,2014-05-07T19:18:57Z
oracledb,2014-05-07T19:21:21Z
oracledb,2014-05-07T19:22:25Z
oracledb,2014-05-07T19:23:06Z
oracledb,2014-05-07T19:24:23Z
oracledb,2014-05-07T19:24:52Z
oracledb,2014-05-07T19:25:50Z
oracledb,2014-05-07T19:26:23Z
oracledb,2014-05-07T19:27:12Z
oracledb,2014-05-07T19:27:37Z
oracledb,2014-05-07T19:28:17Z
oracledb,2014-05-07T19:29:09Z
oracledb,2014-05-07T19:29:51Z
oracledb,2014-05-07T19:31:35Z
oracledb,2014-05-07T19:37:08Z
oracledb,2014-05-07T19:37:46Z
oracledb,2014-05-07T19:40:49Z
oracledb,2014-05-07T19:46:19Z
oracledb,2014-05-07T19:49:25Z
oracledb,2014-05-07T19:50:10Z
oracledb,2014-05-07T19:51:12Z
oracledb,2014-05-07T19:52:53Z
oracledb,2014-05-07T19:53:41Z
oracledb,2014-05-07T19:55:04Z
oracledb,2014-05-07T19:56:04Z
oracledb,2014-05-07T19:57:11Z
oracledb,2014-05-07T19:58:52Z
oracledb,2014-05-07T20:00:19Z
oracledb,2014-05-07T20:01:31Z
oracledb,2014-05-07T20:02:21Z
oracledb,2014-05-07T20:02:28Z
oracledb,2014-05-07T22:26:04Z
oracledb,2014-05-07T22:28:12Z
oracledb,2014-05-07T22:28:28Z
oracledb,2014-05-07T22:29:36Z
oracledb,2014-05-09T17:22:31Z
oracledb,2014-05-09T17:34:45Z
oracledb,2014-05-09T18:07:24Z
oracledb,2014-05-09T19:50:54Z
oracledb,2014-05-19T09:59:39Z
oracledb,2014-05-19T10:01:03Z
oracledb,2014-05-19T10:05:21Z
oracledb,2014-05-19T10:07:33Z
oracledb,2017-04-05T05:22:07Z
oracledb,2022-06-23T12:25:34Z
oracledb,2015-04-02T23:47:43Z
oracledb,2021-01-15T08:04:31Z
oracledb,2020-07-14T03:14:09Z
oracledb,2017-09-23T18:00:38Z
