comment,removed_code,label_transformers,confidence_transformers,label_laurent,label_diego,label_julie
this was just a test.,no,-,-,-,-,-
lol ;),no,-,-,-,-,-
Looks like a typo here:See &7 instead of &&,no,-,-,-,-,-
Bravo :),no,-,-,-,-,-
Good to see I'm not the only one improving error messages!,no,-,-,-,-,-
Is it necessarily a good idea to have class diagrams in the visual studio projects? These projects will always be an afterthought (and rightly so) to the scons project.,no,-,-,-,-,-
that's an accident.  will remove.,no,-,-,-,-,-
Confirmed that actually worked.,no,-,-,-,-,-
Shouldn't the constant MaxBSONObjectSize be used instead? In case one wants to customize the size.,no,-,-,-,-,-
"stoll() doesn't exist in Visual Studio 2008. I'm installing the windows 7 SDK to see if that will rectify it, but perhaps even being dirty and calling atol() would be better than causing build problems.",no,-,-,-,-,-
"The older, more conservative function is _strtoi64()Fix inStackoverflow discussion is in",no,-,-,-,-,-
Test code I used for this.:,yes,-,-,-,-,-
"Dwight,Shouldn't we also check the error cases?I'll confess I'm not running the unit tests on my machine. I'll start doing that.",no,-,-,-,-,-
"sure.UnitTest is something that runs at every server startup.  so they must very light and fast.""real"" tests should go in dbtests / test binary (or jstests if applicable)running tests v good idea.  see ""smoke"" page on wiki",no,-,-,-,-,-
"The UTF-8 BOM, signifying nothing, and annoying the hell out of developers and users.",no,-,-,-,-,-
"Was the near/far thing a 64 bit thing? I though the near/far dated back to win16 programming?Regardless, it compiles.",no,-,-,-,-,-
vs2008 vs vs2010 issue,no,-,-,-,-,-
"don't comment out the lines in the method, just comment out doTest() etc...makes it easer to test, etc...",no,-,-,-,-,-
"Eliot, please roll this commit back. I found a bug with it. I didn't think you would include it until I made a pull request to you. Thanks, Tony",no,-,-,-,-,-
"Wouldn't ""-o -"" be more inline with unix convention than ""-o stdout""? Or is the problem boost parsing?Then again, part of me thinks default mongodump behavior should be to stdout, and there shoulld be a new switch for current default behavior.",no,-,-,-,-,-
"Double build break, double my bad. I'll have to start building on ubuntu to check these things.",no,-,-,-,-,-
Won't this catch use of small oplog size when used with an arbiter? In your docs you recommend using a small oplog,no,-,-,-,-,-
right.  will take it out.,no,-,-,-,-,-
Could InterLockedExchange be used on windows and __sync_xor_and_fetch when GCC is used?For windows:For GCC:,no,-,-,-,-,-
There is no way to make it cleaner using boost::filesystem ?,no,-,-,-,-,-
detects int overflow in passed 2d bounds/parameters,no,-,-,-,-,-
Major change here is basically to pull up the expand algorithm into the superclass.,no,-,-,-,-,-
"You also need to make a similar change within void ReplicaSetMonitor::_checkHosts():Line 297: log(1) << ""updated set ("" << _name << "") to: "" << getServerAddress()Perhaps more places as well.",no,-,-,-,-,-
The one you mentioned should be that way i believe.,no,-,-,-,-,-
Why not checking that scale is a multiple of 1024 ?,no,-,-,-,-,-
"Won't this mean you can step down a primary (and assuming a busy website load) 10 seconds of data may be lost?I would have thought you would want to have no lag what so ever, otherwise you need to specify force: true, instead of allowing 10 seconds of lag time?",no,-,-,-,-,-
"Assuming a healthy network, no.  The other secondaries will replicate fromthe primary until they are up-to-date, then elect a new primary.  The 10second rule is to make sure that there isn't a long lag while secondariesare catching up (and there is no primary).If the network is unhealthy, then it is possible that data will be rolledback (not lost).  However, this was true before, is part of the design ofreplica sets (seecommit provides a stronger guarantee than before: only 10 seconds of datamay be rolled back.",no,-,-,-,-,-
"Ah that makes a lot of sense now.I initially thought that the 10 seconds was a tolerance of how much data you could lose if you wanted to switch primaries (that's what I get from only glancing at the code!).I thought that a stepdown would immediately stop any secondaries from syncing from it (and they could be at most 10 seconds out of date) and then a new primary would be elected within a few seconds (at the cost of maybe losing yet-to-be-synced data from the previous primary).If I am correct in reading your comment then it then sounds like its much smarter than that; and instead the primary steps down, lets the secondaries continue to sync from it to become up to date (so no data is lost, even if the data was not yet synced from the primary), and then a new primary is elected without data loss.The 10 second window is just a way to make sure this 'catch up' process will happen fast (as not much data needs to be synced) as to not delay election of a new primary.Thanks for clearing that up!",no,-,-,-,-,-
"Yes, exactly.Thanks for clearing that up!No problem!",no,-,-,-,-,-
"perhaps, this would extend ""life"" for SERVER-3016 issues ?",no,-,-,-,-,-
OMG thank you for fixing this.  Personally a victim of it. :),no,-,-,-,-,-
"Haha, you're welcome :)",no,-,-,-,-,-
backport?,no,-,-,-,-,-
"The formatting on this is off.Also, this will be kind of slow since its going to cause an error every time.We need to check and see if there actually is a prompt() function.",no,-,-,-,-,-
"Should make it possible to write ""uassert( 0, ""blah blah"", x",no,-,-,-,-,-
alloc deleted freelist allocation chaining,no,-,-,-,-,-
"Damn, I'm glad I'm not as stupid as the guy who wrote this.",no,-,-,-,-,-
that's harsh :-)what's wrong with it,no,-,-,-,-,-
"assert is not normally used for buffer overflow protection (as it appears to be in this diff) as it's a macro that doesn't generate any code without NDEBUG defined.However, it appears assert is redefined as MONGO_assert which may properly guard this function even when not compiled with debugging? I couldn't quickly find the definition of MONGO_assert...At any rate the standard approach in this case would be to use the strncpy function which only copies up to len bytes. The strcpy/strncpy man page even includes a sample implementation of strncpy.",no,-,-,-,-,-
in mongo assert is defined even in release builds.  thus this works.the idea is that this notifies if the buffer is too small.  strncpy would work but you wouldn't get any notification.  this should never happen thus the abort.,no,-,-,-,-,-
Excellent. Disaster averted.I think this commit just got passed around because it's very difficult to tell that assert has non-default behavior.,no,-,-,-,-,-
I believe it was passed around as a pre-fix copy of it was found in a thirdparty driver and mistaken for being mongoDB code.  Should be corrected inboth places now.,no,-,-,-,-,-
what's wrong with assert? it works doesn't it?,no,-,-,-,-,-
I believe it was passed around because apparently this engineer never heard of strncpy(3).,no,-,-,-,-,-
it means that the db will allocate 3GB right off the bat and take a while to start.May be quite painful for someone just testing the db.I guess we'll have to remember to tell people to use --smallfiles when trying out mongo.,no,-,-,-,-,-
"This doesn't handle null values; now there is no distinction between null and the empty string. Try:client.query('SELECT NULL as field_a, NULL as field_b, """" AS field_c', function(err, results) {  if (err) throw err;  assert.strictEqual(results[0].field_a, null);  assert.strictEqual(results[0].field_b, null);  assert.strictEqual(results[0].field_c, '');  client.end();});",no,-,-,-,-,-
Fixed in: 10e81c252e6a9f3d83e9d05a8e8f693a2756784c,no,-,-,-,-,-
Is there a specific reason why BLOB's aren't cast into buffers?,no,-,-,-,-,-
My original patch contained support for casting blobs to buffers. Maybe there is a plan for implementing it differently? I dunno.,no,-,-,-,-,-
"Yeah, I didn't do that part yet because it is hard to do efficiently. I need to talk to ryan to see if we can do better than that, but otherwise yes - this is coming back in. If any of you guys needs it right now, ping me and I'll put the naive implementation back in.",no,-,-,-,-,-
Doesn't this create a memory problem for large result sets?,no,-,-,-,-,-
"It's not a bug - it's a feature! I mean in a lot of cases it is very convenient to buffer all result rows, but it is entirely optional. If you don't pass a callback to the `.query()` function, no result set buffering takes place and you only get individual `'row'` events.But maybe I'm missing something and you're saying there is a memory leak here?",no,-,-,-,-,-
I see. Did not see you always return the query object so one can handle the events themselves.Impressive work!,no,-,-,-,-,-
"Thanks Malte! I'm using the same pattern in `formidable` (passing a callback causes buffering). It's certainly not obvious from a user perspective, so I think a little work needs to go into promoting this approach. I'll write a little blog post about it.In the future I would like to go even further and allow streaming the row values themselves, but that's even harder in terms of finding a nice API for it (most folks wouldn't want this behavior by default).",no,-,-,-,-,-
"Hmm, maybe if one is coming from an ActiveRecord like background. When working with cursors, receiving a callback per row feels natural. Then again this can always be handled on the level above as long as the raw API is exposed.",no,-,-,-,-,-
"Well, not everybody is as streamie as you, jed and me : ).",no,-,-,-,-,-
"You can write to me, when this part of the improvements will be completed, I will update the [node-mysql-bindings-benchmark](Any comments are welcome.",no,-,-,-,-,-
For now I just picked some low hanging fruits that were easy to spot. Hopefully I'll have time to do some full profiling soon to see if there is more performance to be gained. I'll let you know.,no,-,-,-,-,-
 can also be written  if you want to avoid multiplication (or  if you want it readable). but the lookup table is probably as fast :),yes,-,-,-,-,-
"Cal: I just tried that, but it doesn't seem to be any faster. Do you see any reason why it should be faster than a property lookup?",no,-,-,-,-,-
"It should be faster than the power op, but probably no faster than a property lookup in practice - they're both very very simple ops. I did a quick benchmark:so i think the lookup is just fine :D",yes,-,-,-,-,-
"Yeah, I still hope to find some major performance bottlenecks - right now this driver is still an order of magnitude slower than the C competition, and I don't think it should be that slow : ).",no,-,-,-,-,-
"Not sure if this is related to the staging area, but this is not the issue, so I write here.I used this code to benchmarking reconnect of node-mysql:So I change it to:But `connect` doesn't work after `end`. Is this right behavior?",yes,-,-,-,-,-
"I just fixed the reconnect behavior in 2db5bbdb449686733290390cb3c196d9af3d43be. Your benchmark should now work.Anyway, also test `client.destroy()` as that is now behaving like `client.end()` used to behave. I would expect `client.end()` to be a good bit slower, but I guess you will see for yourself : ).",no,-,-,-,-,-
"Thanks, it works.I added a benchmark with client.destroy () in Sannis/node-mysql-bindings-benchmarks@ad86b0f982b8c8ffd24b45dfbfe4ce6832239a52.Yep, client.destroy() is 20-50% faster than client.end(), but this rate is unstable, because I have to run with a small number of reconnects. DNS resolving is used when connecting, and my server can not cope with so many queries :-) It's a bit strange, so I will think over this point. I have long been thought to use the unix socket, to ignore the network operation, even if they are local.",yes,-,-,-,-,-
"Is there any reason why this function, unlike all others is attached directly to Client rather than to Client.prototype?",no,-,-,-,-,-
"Yeah, it doesn't depend on the state of a client instance, so this makes it ""class method"" in my book. How would you do it?",no,-,-,-,-,-
"interesting, I imagine the lookup is a bit costly since it has to traverse a few scopes but 22%?? awesome!",no,-,-,-,-,-
"Yeah, Tim-smart mentioned something about this to me a while back when I was working on a new websocket parser.",no,-,-,-,-,-
"I guess its all relative, compared to the rest of your app it might not make much of a difference at all, but pretty easy optimization to squeeze out",no,-,-,-,-,-
"Yeah, I wouldn't take this optimization _anywhere_ else, but this switch statement is literally executed millions of times, so it makes sense here. There are a few other micro-optimizations like this that I have found, but they're not worthwhile compared to this. I'm still hoping to find some bigger opportunities to gain more speed. At this point this module is ~7x slower for SELECT and ~2x slower for INSERT compared to PHP.",no,-,-,-,-,-
"ah, that explains it :)",no,-,-,-,-,-
"I'm just curious, what if array of functions indexed by state is used? At least in C it would be good optimization for a big switch.",no,-,-,-,-,-
It turns out it's ~60% faster than using a plain variable as this test shows:,no,-,-,-,-,-
"vgrichina: Just tried it, it's just about the same speed it seems.",no,-,-,-,-,-
I think it's because you were looking up the property of an object which probably make v8 opt out of inlining the statement. The difference in those raw operations would not be 20% :),no,-,-,-,-,-
"yeah good call, if they are numeric and _not_ properties I could see v8 inlining them, but even eval() could get in the way of that I'd imagine",no,-,-,-,-,-
eval breaks pretty much all optimizations :),no,-,-,-,-,-
yup lol,no,-,-,-,-,-
"Great, I'll update [node-mysql-bindings-benchmarks](",no,-,-,-,-,-
Please push this newest version to NPM as soon as possible... I really need this array handling ability in a current project.,no,-,-,-,-,-
I agree. Please push to NPM.,no,-,-,-,-,-
+1 to pushing to npm,no,-,-,-,-,-
How can I put the new password? MySQL version? Re-make the user?Edit 1: Is the Hashing?,no,-,-,-,-,-
Does this pass the test suite?,no,-,-,-,-,-
There should be a test for this.,no,-,-,-,-,-
"OK, I'll do it in a moment.",no,-,-,-,-,-
You were right about the test. It made me realize the stupidity of my change :smile: I'll update it now.,no,-,-,-,-,-
Great work man. Thank you so much. :heart: :heart: :heart:,no,-,-,-,-,-
"Why does `'drain'` take an `err` argument here? I think this is copy & paste failure, isn't it? : p",no,-,-,-,-,-
"LGTM, good work. Did you also add a note to the docs?UPDATE: never mind, I see you did. Awesome!",no,-,-,-,-,-
Yeah.. you got me! :P,no,-,-,-,-,-
Fixed.,no,-,-,-,-,-
"You should create a new class called `Field` for this as v8 really loves named constructors for hidden class optimizations. It also adds more structure to things, which I like.",no,-,-,-,-,-
:hammer: sweet!,no,-,-,-,-,-
